<?xml version="1.0" ?>
<robot name="dummy_human" xmlns:xacro="http://www.ros.org/wiki/xacro">

  <xacro:include filename="$(find dummy_human_description)/urdf/materials.xacro" />
  <xacro:include filename="$(find dummy_human_description)/urdf/dummy_human_properties.xacro" />
  <xacro:include filename="$(find dummy_human_description)/urdf/dummy_human.gazebo" />
  <xacro:include filename="$(find dummy_human_description)/urdf/macros.xacro" />
  <xacro:include filename="$(find dummy_human_description)/urdf/dummy_human_base.xacro" />

  <link name="link_chassis">
    <!-- pose and inertial -->
    <pose>0 0 0 0 0 0</pose>
    <inertial>
      <mass value="1"/>
      <origin rpy="0 0 0" xyz="0 0 0"/>
      <inertia ixx="0.000241935" ixy="0" ixz="0" iyy="0.000241935" iyz="0" izz="0.000241935"/>
    </inertial>
    <!-- body -->
    <collision name="collision_chassis">
      <geometry>
      <!--
        <box size="0.0762 0.0762 0.0762"/>
        -->
        <box size="${base_box_x} ${base_box_y} ${base_box_z}"/>
      </geometry>
    </collision>

  </link>


  <xacro:link_wheel name="link_right_wheel" r="${wheel_radius}" l="${wheel_width}" incr="${wheel_increment}"/>
  <xacro:joint_wheel name="joint_right_wheel" child="link_right_wheel" origin_xyz="0 ${base_box_x / 4.0} 0" />

  <xacro:link_wheel name="link_left_wheel" r="${wheel_radius}" l="${wheel_width}" incr="${wheel_increment}"/>
  <xacro:joint_wheel name="joint_left_wheel" child="link_left_wheel" origin_xyz="0 ${-1.0 * base_box_x / 2.0} 0" />

  <xacro:dummy_human_dummy  name="dummy_human_dummy" parent="link_chassis" r="${wheel_radius}" l="${wheel_width}" incr="${wheel_increment}" origin_xyz="${1.0 * base_box_x / 2.0} 0 0" origin_xyz_back="${-1.0 * base_box_x / 2.0} 0 0"/>
</robot>
